*** Reading local file: /root/airflow/logs/mgt_psv_57/inferencia_vazao/2021-08-31T22:27:52.928263+00:00/1.log
[2021-08-31 19:28:08,282] {taskinstance.py:876} INFO - Dependencies all met for <TaskInstance: mgt_psv_57.inferencia_vazao 2021-08-31T22:27:52.928263+00:00 [queued]>
[2021-08-31 19:28:08,315] {taskinstance.py:876} INFO - Dependencies all met for <TaskInstance: mgt_psv_57.inferencia_vazao 2021-08-31T22:27:52.928263+00:00 [queued]>
[2021-08-31 19:28:08,315] {taskinstance.py:1067} INFO - 
--------------------------------------------------------------------------------
[2021-08-31 19:28:08,315] {taskinstance.py:1068} INFO - Starting attempt 1 of 1
[2021-08-31 19:28:08,316] {taskinstance.py:1069} INFO - 
--------------------------------------------------------------------------------
[2021-08-31 19:28:08,329] {taskinstance.py:1087} INFO - Executing <Task(_PythonDecoratedOperator): inferencia_vazao> on 2021-08-31T22:27:52.928263+00:00
[2021-08-31 19:28:08,336] {standard_task_runner.py:52} INFO - Started process 1897993 to run task
[2021-08-31 19:28:08,346] {standard_task_runner.py:76} INFO - Running: ['airflow', 'tasks', 'run', 'mgt_psv_57', 'inferencia_vazao', '2021-08-31T22:27:52.928263+00:00', '--job-id', '78355', '--pool', 'default_pool', '--raw', '--subdir', 'DAGS_FOLDER/57_psv_mgt_dag.py', '--cfg-path', '/tmp/tmprsgmtzce', '--error-file', '/tmp/tmp3ozj2sxa']
[2021-08-31 19:28:08,347] {standard_task_runner.py:77} INFO - Job 78355: Subtask inferencia_vazao
[2021-08-31 19:28:08,455] {logging_mixin.py:104} INFO - Running <TaskInstance: mgt_psv_57.inferencia_vazao 2021-08-31T22:27:52.928263+00:00 [running]> on host airflow-ubuntu
[2021-08-31 19:28:09,001] {taskinstance.py:1280} INFO - Exporting the following env vars:
AIRFLOW_CTX_DAG_OWNER=lii
AIRFLOW_CTX_DAG_ID=mgt_psv_57
AIRFLOW_CTX_TASK_ID=inferencia_vazao
AIRFLOW_CTX_EXECUTION_DATE=2021-08-31T22:27:52.928263+00:00
AIRFLOW_CTX_DAG_RUN_ID=manual__2021-08-31T22:27:52.928263+00:00
[2021-08-31 19:28:09,063] {crypto.py:82} WARNING - empty cryptography key - values will not be stored encrypted.
[2021-08-31 19:28:09,069] {taskinstance.py:1481} ERROR - Task failed with exception
Traceback (most recent call last):
  File "/usr/local/lib/python3.8/dist-packages/airflow/models/taskinstance.py", line 1137, in _run_raw_task
    self._prepare_and_execute_task_with_callbacks(context, task)
  File "/usr/local/lib/python3.8/dist-packages/airflow/models/taskinstance.py", line 1311, in _prepare_and_execute_task_with_callbacks
    result = self._execute_task(context, task_copy)
  File "/usr/local/lib/python3.8/dist-packages/airflow/models/taskinstance.py", line 1341, in _execute_task
    result = task_copy.execute(context=context)
  File "/usr/local/lib/python3.8/dist-packages/airflow/decorators/base.py", line 136, in execute
    return_value = super().execute(context)
  File "/usr/local/lib/python3.8/dist-packages/airflow/operators/python.py", line 150, in execute
    return_value = self.execute_callable()
  File "/usr/local/lib/python3.8/dist-packages/airflow/operators/python.py", line 161, in execute_callable
    return self.python_callable(*self.op_args, **self.op_kwargs)
  File "/root/airflow/dags/57_psv_mgt_dag.py", line 48, in inferencia_vazao
    return Transform_PSV.transform(dados, id)
  File "/root/airflow/dags/mgt/psv/Transform_PSV.py", line 287, in transform
    resultado = calcular_vazoes_psv(estado_fluido=parametros['estado'],
  File "/root/airflow/dags/mgt/psv/Transform_PSV.py", line 61, in calcular_vazoes_psv
    vazao_instantanea = calcular_vazao_instantanea(estado_fluido, tipo_psv, abertura, area_psv, pressao_montante, pressao_jusante, pressao_set,
  File "/root/airflow/dags/mgt/psv/Transform_PSV.py", line 92, in calcular_vazao_instantanea
    vazao_massica = calcular_vazao_massica_gas(tipo_psv, abertura, p_montante, p_jusante, p_atmosferica, temperatura, area_do_orificio,
  File "/root/airflow/dags/mgt/psv/Transform_PSV.py", line 168, in calcular_vazao_massica_gas
    vazao_massica = _fluxo_subcritico(area_do_orificio, p_montante, p_jusante, fluxo, temperatura, kd, kc, peso_molecular, fator_compressibilidade)
  File "/root/airflow/dags/mgt/psv/Transform_PSV.py", line 205, in _fluxo_subcritico
    return (1.0 / 17.9) * area_do_orificio * fluxo * kd * kc * math.sqrt(peso_molecular * p_montante * (p_montante - p_jusante) / (temperatura * fator_compressibilidade))
ValueError: math domain error
[2021-08-31 19:28:09,074] {taskinstance.py:1524} INFO - Marking task as FAILED. dag_id=mgt_psv_57, task_id=inferencia_vazao, execution_date=20210831T222752, start_date=20210831T222808, end_date=20210831T222809
[2021-08-31 19:28:09,120] {local_task_job.py:151} INFO - Task exited with return code 1

====================================================================================
COMENTÁRIOS:

- Alterando o valor do cpcv, acontece este novo erro. Após consultar as tags no Historian, percebi que a contrapressão estava maior que a pressão montante, fazendo com que a função math.sqrt() retornasse esse erro